Backup.c:79:6:SetupHandler	24	static
Backup.c:85:6:TemperatureCaptureHandler	16	static
Backup.c:88:6:SunlightCaptureHandler	4	static
Backup.c:91:6:DetermineFanHandler	16	static
Backup.c:94:6:FanOnHandler	4	static
Backup.c:97:6:FanOffHandler	4	static
Backup.c:100:6:CheckDoorHandler	24	static
Backup.c:105:6:OpenDoorHandler	16	static
Backup.c:113:6:CloseDoorHandler	16	static
Backup.c:121:6:FillFoodHandler	4	static
Backup.c:124:6:FillWaterHandler	4	static
Backup.c:127:6:TimerCheckHandler	4	static
Backup.c:130:6:SleepHandler	4	static
Backup.c:140:5:main	24	static
Backup.c:260:6:SystemClock_Config	96	static
Backup.c:302:13:MX_TIM1_Init	112	static
Backup.c:382:13:MX_USART2_UART_Init	8	static
Backup.c:417:13:MX_GPIO_Init	40	static
Backup.c:468:6:Error_Handler	4	static
